[gd_resource type="StyleBoxFlat" format=2]

[resource]
bg_color = Color( 0.4, 0.3916, 0.372, 1 )
corner_radius_top_left = 2
corner_radius_top_right = 2
corner_radius_bottom_right = 2
corner_radius_bottom_left = 2
