[gd_scene load_steps=5 format=2]

[ext_resource path="res://Main.gd" type="Script" id=1]
[ext_resource path="res://interface/map/Map.tscn" type="PackedScene" id=2]
[ext_resource path="res://interface/GUI.tscn" type="PackedScene" id=3]
[ext_resource path="res://interface/map/GCC2D.tscn" type="PackedScene" id=4]

[node name="Main" type="Node"]
script = ExtResource( 1 )

[node name="Map" parent="." instance=ExtResource( 2 )]

[node name="GUI" parent="." instance=ExtResource( 3 )]

[node name="GCC2D" parent="." instance=ExtResource( 4 )]

[connection signal="field_pressed" from="Map" to="." method="_on_Map_field_pressed"]
[connection signal="show_field_on_map" from="GUI" to="." method="_on_GUI_show_field_on_map"]
[connection signal="move" from="GCC2D" to="." method="_on_GCC2D_move"]
[connection signal="zoom" from="GCC2D" to="." method="_on_GCC2D_zoom"]
