[gd_scene load_steps=3 format=2]

[ext_resource path="res://themes/server_menu/user_panel.tres" type="Theme" id=1]
[ext_resource path="res://interface/network_menu/user_panel/User_Panel.gd" type="Script" id=2]

[node name="User_Panel" type="Panel"]
anchor_right = 1.0
anchor_bottom = 0.206
margin_bottom = 0.0399933
rect_min_size = Vector2( 0, 138.024 )
size_flags_horizontal = 3
theme = ExtResource( 1 )
script = ExtResource( 2 )
__meta__ = {
"_edit_use_anchors_": false
}

[node name="ID_Label" type="Label" parent="."]
anchor_bottom = 0.471
margin_right = 96.0
margin_bottom = -0.0559998
text = "ID: "
align = 1
valign = 1
__meta__ = {
"_edit_use_anchors_": false
}

[node name="ID_Display" type="Label" parent="."]
anchor_right = 1.0
anchor_bottom = 0.471
margin_left = 96.0
margin_bottom = -0.0559998
size_flags_horizontal = 3
text = "1234567890"
valign = 1
__meta__ = {
"_edit_use_anchors_": false
}

[node name="Username_Label" type="Label" parent="."]
anchor_top = 0.471
anchor_bottom = 0.941
margin_top = -0.0559998
margin_right = 128.0
margin_bottom = 0.0239944
text = "name: "
align = 1
valign = 1
clip_text = true
__meta__ = {
"_edit_use_anchors_": false
}

[node name="Username_Display" type="Label" parent="."]
anchor_top = 0.471
anchor_right = 1.0
anchor_bottom = 0.941
margin_left = 128.0
margin_top = -0.0559998
margin_right = -1.0
margin_bottom = 0.0239944
size_flags_horizontal = 3
text = "Bob"
valign = 1
clip_text = true
__meta__ = {
"_edit_use_anchors_": true
}

[node name="Seperator" type="ColorRect" parent="."]
anchor_top = 0.941174
anchor_right = 1.0
anchor_bottom = 1.00417
margin_top = 0.000259399
margin_bottom = -0.063736
size_flags_horizontal = 3
size_flags_vertical = 3
color = Color( 0.541176, 0.490196, 0.490196, 1 )
__meta__ = {
"_edit_use_anchors_": false
}
