[gd_resource type="Theme" load_steps=8 format=2]

[ext_resource path="res://fonts/task_creator/Task_Font.tres" type="DynamicFont" id=1]
[ext_resource path="res://themes/task_creator/incomplete_task/Background.tres" type="StyleBox" id=2]
[ext_resource path="res://themes/task_creator/incomplete_task/Normal.tres" type="StyleBox" id=3]
[ext_resource path="res://themes/task_creator/incomplete_task/Disabled.tres" type="StyleBox" id=4]
[ext_resource path="res://themes/task_creator/incomplete_task/Pressed.tres" type="StyleBox" id=5]
[ext_resource path="res://themes/task_creator/incomplete_task/Hover.tres" type="StyleBox" id=6]
[ext_resource path="res://themes/task_creator/incomplete_task/Focus.tres" type="StyleBox" id=7]

[resource]
default_font = ExtResource( 1 )
Button/colors/font_color = Color( 1, 1, 1, 1 )
Button/colors/font_color_disabled = Color( 0.521569, 0.521569, 0.521569, 1 )
Button/colors/font_color_hover = Color( 1, 1, 1, 1 )
Button/colors/font_color_pressed = Color( 1, 1, 1, 1 )
Button/constants/hseparation = 2
Button/fonts/font = null
Button/styles/disabled = ExtResource( 4 )
Button/styles/focus = ExtResource( 7 )
Button/styles/hover = ExtResource( 6 )
Button/styles/normal = ExtResource( 3 )
Button/styles/pressed = ExtResource( 5 )
Label/colors/font_color = Color( 1, 1, 1, 1 )
Label/colors/font_color_shadow = Color( 0, 0, 0, 0 )
Label/colors/font_outline_modulate = Color( 1, 1, 1, 1 )
Label/constants/line_spacing = 3
Label/constants/shadow_as_outline = 0
Label/constants/shadow_offset_x = 1
Label/constants/shadow_offset_y = 1
Label/fonts/font = null
Label/styles/normal = null
Panel/styles/panel = ExtResource( 2 )
