[gd_resource type="Theme" load_steps=9 format=2]

[ext_resource path="res://fonts/gui/Gui_Font.tres" type="DynamicFont" id=1]
[ext_resource path="res://themes/gui/Gui_Brown_Color.tres" type="StyleBox" id=2]
[ext_resource path="res://themes/gui/button/Pressed.tres" type="StyleBox" id=3]
[ext_resource path="res://themes/gui/button/Focus.tres" type="StyleBox" id=4]
[ext_resource path="res://themes/gui/button/Normal.tres" type="StyleBox" id=5]
[ext_resource path="res://themes/gui/button/Disabled.tres" type="StyleBox" id=6]
[ext_resource path="res://themes/gui/button/Hover.tres" type="StyleBox" id=7]

[sub_resource type="StyleBoxFlat" id=1]
bg_color = Color( 1, 0.121569, 0.121569, 1 )
border_color = Color( 1, 0, 0, 1 )

[resource]
default_font = ExtResource( 1 )
Button/colors/font_color = Color( 0, 0, 0, 1 )
Button/colors/font_color_disabled = Color( 0.9, 0.9, 0.9, 0.2 )
Button/colors/font_color_hover = Color( 0, 0, 0, 1 )
Button/colors/font_color_pressed = Color( 0, 0, 0, 1 )
Button/constants/hseparation = 2
Button/fonts/font = null
Button/styles/disabled = ExtResource( 6 )
Button/styles/focus = ExtResource( 4 )
Button/styles/hover = ExtResource( 7 )
Button/styles/normal = ExtResource( 5 )
Button/styles/pressed = ExtResource( 3 )
Label/colors/font_color = Color( 1, 1, 1, 1 )
Label/colors/font_color_shadow = Color( 0, 0, 0, 0 )
Label/colors/font_outline_modulate = Color( 1, 1, 1, 1 )
Label/constants/line_spacing = 3
Label/constants/shadow_as_outline = 0
Label/constants/shadow_offset_x = 1
Label/constants/shadow_offset_y = 1
Label/fonts/font = null
Label/styles/normal = null
Panel/styles/panel = ExtResource( 2 )
ScrollContainer/styles/ScrollBar = SubResource( 1 )
